User Guide
…
names(sun_reference.mspct)

## [1] "ASTM.E490.AM0"    "ASTM.G173.direct" "ASTM.G173.global"
## [4] "Gueymard.AM0"     "WMO.Wehrli.AM0"

We can use a character string as index to extract an individual source_spct object.

sun_reference.mspct$Gueymard.AM0

## Object: source_spct [2,002 x 2]
## Wavelength range 280 to 4000 nm, step 0.5 to 5 nm 
## Time unit 1s
## 
## # A tibble: 2,002 x 2
##    w.length s.e.irrad
##       <dbl>     <dbl>
##  1     280.    0.0820
##  2     280.    0.0990
##  3     281.    0.150 
##  4     282.    0.212 
##  5     282.    0.267 
##  6     282.    0.303 
##  7     283.    0.325 
##  8     284.    0.323 
##  9     284.    0.299 
## 10     284.    0.250 
## # ... with 1,992 more rows

sun_reference.mspct[["Gueymard.AM0"]]

## Object: source_spct [2,002 x 2]
## Wavelength range 280 to 4000 nm, step 0.5 to 5 nm 
## Time unit 1s
## 
## # A tibble: 2,002 x 2
##    w.length s.e.irrad
##       <dbl>     <dbl>
##  1     280.    0.0820
##  2     280.    0.0990
##  3     281.    0.150 
##  4     282.    0.212 
##  5     282.    0.267 
##  6     282.    0.303 
##  7     283.    0.325 
##  8     284.    0.323 
##  9     284.    0.299 
## 10     284.    0.250 
## # ... with 1,992 more rows

Be aware that according to R’s rules, using single square brackets will return a source_mspct object possibly of length one. This statement is not equivalent to the one in the chunk immediately above.

sun_reference.mspct["Gueymard.AM0"]

## Object: source_mspct [1 x 1]
## --- Member: Gueymard.AM0 ---
## Object: source_spct [2,002 x 2]
## Wavelength range 280 to 4000 nm, step 0.5 to 5 nm 
## Time unit 1s
## 
## # A tibble: 2,002 x 2
##    w.length s.e.irrad
##       <dbl>     <dbl>
##  1     280.    0.0820
##  2     280.    0.0990
##  3     281.    0.150 
##  4     282.    0.212 
##  5     282.    0.267 
##  6     282.    0.303 
##  7     283.    0.325 
##  8     284.    0.323 
##  9     284.    0.299 
## 10     284.    0.250 
## # ... with 1,992 more rows
## 
## --- END ---

Accessing subsets of spectra

We can subset sensors.mspct object by indexing with vectors of character strings. More generally one can search for matching names within the collection of spectra.

sun_reference.mspct[grep("AM0", names(sun_reference.mspct), ignore.case = TRUE)]

## Object: source_mspct [3 x 1]
## --- Member: ASTM.E490.AM0 ---
## Object: source_spct [1,697 x 2]
## Wavelength range 119.5 to 1e+06 nm, step 1 to 6e+05 nm 
## Time unit 1s
## 
## # A tibble: 1,697 x 2
##    w.length s.e.irrad
##       <dbl>     <dbl>
##  1     120.      61.9
##  2     120.     561. 
##  3     122.    4901. 
##  4     122.    1184. 
##  5     124.      47.7
##  6     124.      34.3
##  7     126.      28.8
##  8     126.      35.2
##  9     128.      21.3
## 10     128.      17.3
## # ... with 1,687 more rows
## --- Member: Gueymard.AM0 ---
## Object: source_spct [2,002 x 2]
## Wavelength range 280 to 4000 nm, step 0.5 to 5 nm 
## Time unit 1s
## 
## # A tibble: 2,002 x 2
##    w.length s.e.irrad
##       <dbl>     <dbl>
##  1     280.    0.0820
##  2     280.    0.0990
##  3     281.    0.150 
##  4     282.    0.212 
##  5     282.    0.267 
##  6     282.    0.303 
##  7     283.    0.325 
##  8     284.    0.323 
##  9     284.    0.299 
## 10     284.    0.250 
## # ... with 1,992 more rows
## --- Member: WMO.Wehrli.AM0 ---
## Object: source_spct [920 x 2]
## Wavelength range 199.5 to 10075 nm, step 0.1 to 2290 nm 
## Time unit 1s
## 
## # A tibble: 920 x 2
##    w.length s.e.irrad
##       <dbl>     <dbl>
##  1     200.   0.00500
##  2     200.   0.00700
##  3     202.   0.00700
##  4     202.   0.00800
##  5     204.   0.00900
##  6     204.   0.00900
##  7     206.   0.0100 
##  8     206.   0.0100 
##  9     208.   0.0110 
## 10     208.   0.0150 
## # ... with 910 more rows
## 
## --- END ---
…
